Andmetuba - 3 Tehniline töö tunnustega
…
Tehniline töö tunnustega tähendab minu jaoks andmestiku ettevalmistust sisulisemaks analüüsiks. Minu jaoks on see etapp, kus piirid ettevalmistava töö ja kirjeldava statistika vahel hakkavad hägustuma, sest tunnuste väärtuste jaotust vaadatakse mõlemas osas. Seepärast on siin peatükkis juttu kohati mõlemast, sest andmete puhastamisel (ehk analüüsi ettevalmistavas etapis) on vaja kasutada samu võtteid, mida tehake kirjeldava statstika saamiseks. Valitakse analüüsiks sobivad tunnused, vaadatakse nende väärtuste jaotust, koostatakse uued tunnused olemasolevate tunnuste põhjalt või korrastatakse tunnuste kategooriad.

3.2 Tunnuste valimine

Tunnuste valimine tehakse selleks, et jätta kõrvale see osa andmestikust, mis tundub parasjagu ebaoluline. Ebaoluline on see osa, mida me kindlasti analüüsis ei kasuta.

Baasversioonis toimub tunnuste valmine nurksulgude sees, mis sisaldab koma [,]. Enne koma öeldakse R-ile, millised read tuleb valida ja peale koma, millised tulbad (tunnused). Kui jätta tühjaks, valib R kõik read ja tunnused.

tidyverse annab meeldejäävamad käsud select() ja filter().

Miinusmärk - käsu sees näitab, millistest tunnustest loobuda. Näiteks baasversioonis käib kolme esimene tunnuse eemaldamine andmestikust nii.

starwars[, -c(1:3)] 

# A tibble: 87 × 11
   hair_color    skin_color  eye_color birth_year sex   gender homeworld species
   <chr>         <chr>       <chr>          <dbl> <chr> <chr>  <chr>     <chr>  
 1 blond         fair        blue            19   male  mascu… Tatooine  Human  
 2 <NA>          gold        yellow         112   none  mascu… Tatooine  Droid  
 3 <NA>          white, blue red             33   none  mascu… Naboo     Droid  
 4 none          white       yellow          41.9 male  mascu… Tatooine  Human  
 5 brown         light       brown           19   fema… femin… Alderaan  Human  
 6 brown, grey   light       blue            52   male  mascu… Tatooine  Human  
 7 brown         light       blue            47   fema… femin… Tatooine  Human  
 8 <NA>          white, red  red             NA   none  mascu… Tatooine  Droid  
 9 black         light       brown           24   male  mascu… Tatooine  Human  
10 auburn, white fair        blue-gray       57   male  mascu… Stewjon   Human  
# ℹ 77 more rows
# ℹ 3 more variables: films <list>, vehicles <list>, starships <list>
…
Kui on soov filtreerida mitme väärtuse põhjal kasutades “on võrdne” tähist (==) on sage oht segi ajada | ja &. Kui soovime leida kahte nahatooni (nt “fair” ja “pale”) peame kasutama | sümbolit ja mitte &.

starwars%>%
1  filter(skin_color=="fair" |
2           skin_color=="pale")

1

filtreeri read, kus tunnuse väärtus on võrdne sõnaga “fair” või

2

võrdne sõnaga “pale”.

# A tibble: 22 × 14
   name     height  mass hair_color skin_color eye_color birth_year sex   gender
   <chr>     <int> <dbl> <chr>      <chr>      <chr>          <dbl> <chr> <chr> 
 1 Luke Sk…    172  77   blond      fair       blue            19   male  mascu…
 2 Obi-Wan…    182  77   auburn, w… fair       blue-gray       57   male  mascu…
 3 Anakin …    188  84   blond      fair       blue            41.9 male  mascu…
 4 Wilhuff…    180  NA   auburn, g… fair       blue            64   male  mascu…
 5 Han Solo    180  80   brown      fair       brown           29   male  mascu…
 6 Wedge A…    170  77   brown      fair       hazel           21   male  mascu…
 7 Jek Ton…    180 110   brown      fair       blue            NA   <NA>  <NA>  
 8 Palpati…    170  75   grey       pale       yellow          82   male  mascu…
 9 Boba Fe…    183  78.2 black      fair       brown           31.5 male  mascu…
10 Mon Mot…    150  NA   auburn     fair       blue            48   fema… femin…
# ℹ 12 more rows
# ℹ 5 more variables: homeworld <chr>, species <chr>, films <list>,
#   vehicles <list>, starships <list>
…
Sarnaselt separate() käsule kaotab unite() käsk liidetavad tunnused andmestikust ära. Kui sa seda ei soovi, tee esmalt tunnustest andmestikku koopia.

Juhul kui ei soovi, et kahe liidetava tunnuse väärtuse vahel oleks mõni eraldav tähemärk, pane eraldajaks jutumärgid ilma tühikuta "" .

Mitme tunnuse muutmine korraga

Abiks on käsk across() ja where() üheaegne kasutamine. Muudame näiteks kõik character tüüpi tunnused factoriteks.

starwars%>%
  mutate(across(where(is.character), as.factor))

# A tibble: 87 × 16
   name     height  mass hair_color skin_color eye_color birth_year sex   gender
   <fct>     <int> <dbl> <fct>      <fct>      <fct>          <dbl> <fct> <fct> 
 1 Luke Sk…    172    77 blond      fair       blue            19   male  mascu…
 2 C-3PO       167    75 <NA>       gold       yellow         112   none  mascu…
 3 R2-D2        96    32 <NA>       white, bl… red             33   none  mascu…
 4 Darth V…    202   136 none       white      yellow          41.9 male  mascu…
 5 Leia Or…    150    49 brown      light      brown           19   fema… femin…
 6 Owen La…    178   120 brown, gr… light      blue            52   male  mascu…
 7 Beru Wh…    165    75 brown      light      blue            47   fema… femin…
 8 R5-D4        97    32 <NA>       white, red red             NA   none  mascu…
 9 Biggs D…    183    84 black      light      brown           24   male  mascu…
10 Obi-Wan…    182    77 auburn, w… fair       blue-gray       57   male  mascu…
# ℹ 77 more rows
# ℹ 7 more variables: homeworld <fct>, species <fct>, films <list>,
#   vehicles <list>, starships <list>, pikkus_m <dbl>, kmi <dbl>
…
