Andmetuba - 5 Puuduvad väärtused
…
Näeme, et meie andmestik sisaldab puuduvaid väärtusi. Üks võimalus puuduvatest väärtustest vabanemiseks on kasutada käsku na.omit()

starwars%>%
  na.omit()

# A tibble: 29 × 11
   name     height  mass hair_color skin_color eye_color birth_year sex   gender
   <chr>     <int> <dbl> <chr>      <chr>      <chr>          <dbl> <chr> <chr> 
 1 Luke Sk…    172    77 blond      fair       blue            19   male  mascu…
 2 Darth V…    202   136 none       white      yellow          41.9 male  mascu…
 3 Leia Or…    150    49 brown      light      brown           19   fema… femin…
 4 Owen La…    178   120 brown, gr… light      blue            52   male  mascu…
 5 Beru Wh…    165    75 brown      light      blue            47   fema… femin…
 6 Biggs D…    183    84 black      light      brown           24   male  mascu…
 7 Obi-Wan…    182    77 auburn, w… fair       blue-gray       57   male  mascu…
 8 Anakin …    188    84 blond      fair       blue            41.9 male  mascu…
 9 Chewbac…    228   112 brown      unknown    blue           200   male  mascu…
10 Han Solo    180    80 brown      fair       brown           29   male  mascu…
# ℹ 19 more rows
# ℹ 2 more variables: homeworld <chr>, species <chr>

Käsu na.omit() kasutamine on õigustatud ainult siis, kui tead täpselt, kus on puuduvad väärtused, miks nad on puuduvad ja kui palju neid on.

Meid aga huvitab, kus kohas need puuduvad väärtused ja tahame nad välja filtreerida. Abiks on käsk complete.cases(.). Puuduvate väärtuste tuvastamiseks on mõistlikum pöörata käsk tagurpidi ja küsida välja read, mis sisaldavad puuduvaid väärtusi ehk !complete.cases(.)

starwars%>%
  filter(!complete.cases(starwars))

# A tibble: 58 × 11
   name     height  mass hair_color skin_color eye_color birth_year sex   gender
   <chr>     <int> <dbl> <chr>      <chr>      <chr>          <dbl> <chr> <chr> 
 1 C-3PO       167    75 <NA>       gold       yellow           112 none  mascu…
 2 R2-D2        96    32 <NA>       white, bl… red               33 none  mascu…
 3 R5-D4        97    32 <NA>       white, red red               NA none  mascu…
 4 Wilhuff…    180    NA auburn, g… fair       blue              64 male  mascu…
 5 Greedo      173    74 <NA>       green      black             44 male  mascu…
 6 Jabba D…    175  1358 <NA>       green-tan… orange           600 herm… mascu…
 7 Jek Ton…    180   110 brown      fair       blue              NA <NA>  <NA>  
 8 Yoda         66    17 white      green      brown            896 male  mascu…
 9 IG-88       200   140 none       metal      red               15 none  mascu…
10 Mon Mot…    150    NA auburn     fair       blue              48 fema… femin…
# ℹ 48 more rows
# ℹ 2 more variables: homeworld <chr>, species <chr>
…
