Andmetuba - 6 Andmestike ühendamine ja struktuuri muutmine
…
Struktuuri muutmisega puutub kokku siis, kui esitame kokkuvõtteid mingi sagedustabeli või risttabeli kujul.

Seepärast räägin praegu group_by() ja summarise() käskude kasutamisest lühidalt. Käsu nimedest on aru saada, et andmestik grupeeritakse ringi ja summarise käsuga arvutatakse kokku kui palju ridu esineb sellises grupeeringus (n()).

Kirjeldava statistika peatükk on koostamisel.

starwars%>%
  group_by(gender, species)%>%
  summarise(n=n())

`summarise()` has grouped output by 'gender'. You can override using the
`.groups` argument.

# A tibble: 42 × 3
# Groups:   gender [3]
   gender    species        n
   <chr>     <chr>      <int>
 1 feminine  Clawdite       1
 2 feminine  Droid          1
 3 feminine  Human          9
 4 feminine  Kaminoan       1
 5 feminine  Mirialan       2
 6 feminine  Tholothian     1
 7 feminine  Togruta        1
 8 feminine  Twi'lek        1
 9 masculine Aleena         1
10 masculine Besalisk       1
# ℹ 32 more rows
…
1

Pööra andmestik nii, et uued nimed tulevad tunnusest “gender” ning

2

uued väärtused tulevad tunnusest n (mis loodi eelmises sammus)

`summarise()` has grouped output by 'gender'. You can override using the
`.groups` argument.

# A tibble: 38 × 4
   species    feminine masculine  `NA`
   <chr>         <int>     <int> <int>
 1 Clawdite          1        NA    NA
 2 Droid             1         5    NA
 3 Human             9        26    NA
 4 Kaminoan          1         1    NA
 5 Mirialan          2        NA    NA
 6 Tholothian        1        NA    NA
 7 Togruta           1        NA    NA
 8 Twi'lek           1         1    NA
 9 Aleena           NA         1    NA
10 Besalisk         NA         1    NA
# ℹ 28 more rows
…
