Andmeanalüüsi töötuba
…
&
ja

Peaaegu kõik levinud funktsioonid algavad R-is väikese tähega ning neile järgnevad sulud (). funktsioon on käsk, mis ütleb programmile, mida teha tuleb. Enamasti ütleb käsu nimi juba, mida ta tegema peab (näiteks käsk filter()), kuid R-ile tuleb sulgudes sees täpsustada, milliste andmetega antud käsku täita. R-is on väga oluline, kas kasutusel on suured või väikesed tähed, teatud sümbolite kasutamine R-ile ei meeldi ning kui R, millestki aru või hakkama ei saa, siis ta seda ka ütleb.

tidyverse pakett laiendab R-i sõnavara olulisel määral. Baasversiooniga on võimalik ka palju ära teha, kuid mina eelistan kasutada pigem tidyverse lähenemist.

Näide, kuidas sama asja saab kirjutada kahel erineval viisil. Esimene neist on nn baasversiooni lähenemine ja teine tidyverse oma. Mõlema koodijupi käivitamine annab sama tulemuse.

#baasversioon
starwars[is.na(starwars$mass),]

# A tibble: 28 × 14
   name     height  mass hair_color skin_color eye_color birth_year sex   gender
   <chr>     <int> <dbl> <chr>      <chr>      <chr>          <dbl> <chr> <chr> 
 1 Wilhuff…    180    NA auburn, g… fair       blue              64 male  mascu…
 2 Mon Mot…    150    NA auburn     fair       blue              48 fema… femin…
 3 Arvel C…     NA    NA brown      fair       brown             NA male  mascu…
 4 Finis V…    170    NA blond      fair       blue              91 male  mascu…
 5 Rugor N…    206    NA none       green      orange            NA male  mascu…
 6 Ric Olié    183    NA brown      fair       blue              NA male  mascu…
 7 Watto       137    NA black      blue, grey yellow            NA male  mascu…
 8 Quarsh …    183    NA black      dark       brown             62 male  mascu…
 9 Shmi Sk…    163    NA black      fair       brown             72 fema… femin…
10 Bib For…    180    NA none       pale       pink              NA male  mascu…
# ℹ 18 more rows
# ℹ 5 more variables: homeworld <chr>, species <chr>, films <list>,
#   vehicles <list>, starships <list>

#tidyverse abil
starwars%>%
  filter(is.na(mass))

# A tibble: 28 × 14
   name     height  mass hair_color skin_color eye_color birth_year sex   gender
   <chr>     <int> <dbl> <chr>      <chr>      <chr>          <dbl> <chr> <chr> 
 1 Wilhuff…    180    NA auburn, g… fair       blue              64 male  mascu…
 2 Mon Mot…    150    NA auburn     fair       blue              48 fema… femin…
 3 Arvel C…     NA    NA brown      fair       brown             NA male  mascu…
 4 Finis V…    170    NA blond      fair       blue              91 male  mascu…
 5 Rugor N…    206    NA none       green      orange            NA male  mascu…
 6 Ric Olié    183    NA brown      fair       blue              NA male  mascu…
 7 Watto       137    NA black      blue, grey yellow            NA male  mascu…
 8 Quarsh …    183    NA black      dark       brown             62 male  mascu…
 9 Shmi Sk…    163    NA black      fair       brown             72 fema… femin…
10 Bib For…    180    NA none       pale       pink              NA male  mascu…
# ℹ 18 more rows
# ℹ 5 more variables: homeworld <chr>, species <chr>, films <list>,
#   vehicles <list>, starships <list>
…
